           rhoc              M             Mb              R              C             kl            lam
   2.945090e-04   1.255606e-01   1.264918e-01   1.830140e+01     6.8607e-03   1.792110e-03   7.860099e+07
   3.123848e-04   1.370814e-01   1.382191e-01   1.591706e+01     8.6122e-03   3.420113e-03   4.812503e+07
   3.302605e-04   1.496354e-01   1.510228e-01   1.431012e+01     1.0457e-02   5.726453e-03   3.053788e+07
   3.481363e-04   1.633196e-01   1.650052e-01   1.309641e+01     1.2471e-02   8.932693e-03   1.974519e+07
   3.660120e-04   1.782426e-01   1.802871e-01   1.220137e+01     1.4608e-02   1.288699e-02   1.291355e+07
   3.838878e-04   1.945241e-01   1.969976e-01   1.149352e+01     1.6925e-02   1.772707e-02   8.510275e+06
   4.017635e-04   2.122809e-01   2.152676e-01   1.093398e+01     1.9415e-02   2.333987e-02   5.640846e+06
   4.196393e-04   2.316175e-01   2.352165e-01   1.048465e+01     2.2091e-02   2.965559e-02   3.757743e+06
   4.375150e-04   2.526364e-01   2.569640e-01   1.013110e+01     2.4937e-02   3.637849e-02   2.515111e+06
   4.553908e-04   2.754352e-01   2.806264e-01   9.831463e+00     2.8016e-02   4.378272e-02   1.691239e+06
   4.732665e-04   3.000826e-01   3.062924e-01   9.595771e+00     3.1272e-02   5.128049e-02   1.143026e+06
   4.911423e-04   3.266191e-01   3.340253e-01   9.410353e+00     3.4708e-02   5.870534e-02   7.769769e+05
   5.090180e-04   3.550688e-01   3.638717e-01   9.252705e+00     3.8375e-02   6.634893e-02   5.315250e+05
   5.268938e-04   3.854386e-01   3.958609e-01   9.131368e+00     4.2210e-02   7.359225e-02   3.661375e+05
   5.447695e-04   4.177119e-01   4.300020e-01   9.031830e+00     4.6249e-02   8.064826e-02   2.540962e+05
   5.626453e-04   4.518423e-01   4.662704e-01   8.960623e+00     5.0425e-02   8.692819e-02   1.777566e+05
   5.805210e-04   4.877622e-01   5.046228e-01   8.900277e+00     5.4803e-02   9.299080e-02   1.254081e+05
   5.983968e-04   5.253851e-01   5.449942e-01   8.860207e+00     5.9297e-02   9.815528e-02   8.925925e+04
   6.162725e-04   5.646065e-01   5.872998e-01   8.830054e+00     6.3941e-02   1.027849e-01   6.411001e+04
   6.341483e-04   6.053057e-01   6.314371e-01   8.810141e+00     6.8706e-02   1.067279e-01   4.647585e+04
   6.520240e-04   6.473466e-01   6.772879e-01   8.792649e+00     7.3624e-02   1.103547e-01   3.401058e+04
   6.698998e-04   6.905810e-01   7.247073e-01   8.790672e+00     7.8558e-02   1.127643e-01   2.512568e+04
   6.877756e-04   7.348511e-01   7.735531e-01   8.790490e+00     8.3596e-02   1.147537e-01   1.873891e+04
   7.235271e-04   8.258350e-01   8.748726e-01   8.801558e+00     9.3828e-02   1.169648e-01   1.072248e+04
   7.414028e-04   8.722097e-01   9.270017e-01   8.811429e+00     9.8986e-02   1.172481e-01   8.225107e+03
   7.592786e-04   9.189549e-01   9.798885e-01   8.822428e+00     1.0416e-01   1.171012e-01   6.367073e+03
   7.771543e-04   9.659150e-01   1.033357e+00   8.840088e+00     1.0927e-01   1.161720e-01   4.972772e+03
   7.950301e-04   1.012939e+00   1.087262e+00   8.850915e+00     1.1444e-01   1.153682e-01   3.917593e+03
   8.129058e-04   1.059882e+00   1.141434e+00   8.862598e+00     1.1959e-01   1.142024e-01   3.112447e+03
   8.307816e-04   1.106605e+00   1.195703e+00   8.880284e+00     1.2461e-01   1.123740e-01   2.493132e+03
   8.486573e-04   1.152980e+00   1.249942e+00   8.891255e+00     1.2968e-01   1.107206e-01   2.013000e+03
   8.665331e-04   1.198885e+00   1.303996e+00   8.902729e+00     1.3466e-01   1.088066e-01   1.637919e+03
   8.844088e-04   1.244214e+00   1.357716e+00   8.920028e+00     1.3949e-01   1.063445e-01   1.342702e+03
   9.022846e-04   1.288874e+00   1.411013e+00   8.930058e+00     1.4433e-01   1.041495e-01   1.108628e+03
   9.201603e-04   1.332780e+00   1.463763e+00   8.940058e+00     1.4908e-01   1.018070e-01   9.217149e+02
   9.380361e-04   1.375857e+00   1.515867e+00   8.950031e+00     1.5373e-01   9.934285e-02   7.714381e+02
   9.559118e-04   1.418041e+00   1.567247e+00   8.952539e+00     1.5840e-01   9.718397e-02   6.498164e+02
   9.737876e-04   1.459274e+00   1.617779e+00   8.961065e+00     1.6285e-01   9.461054e-02   5.507598e+02
   1.009539e-03   1.538704e+00   1.716098e+00   8.971073e+00     1.7152e-01   8.965832e-02   4.026672e+02
   1.027415e-03   1.576829e+00   1.763760e+00   8.972407e+00     1.7574e-01   8.730407e-02   3.471881e+02
   1.045291e-03   1.613864e+00   1.810353e+00   8.973613e+00     1.7985e-01   8.492977e-02   3.009335e+02
   1.063166e-03   1.649795e+00   1.855812e+00   8.980061e+00     1.8372e-01   8.230273e-02   2.621617e+02
   1.081042e-03   1.684615e+00   1.900164e+00   8.980037e+00     1.8760e-01   7.997790e-02   2.294915e+02
   1.098918e-03   1.718319e+00   1.943387e+00   8.973126e+00     1.9150e-01   7.795920e-02   2.018252e+02
   1.116794e-03   1.750911e+00   1.985401e+00   8.971674e+00     1.9516e-01   7.571104e-02   1.782851e+02
   1.152545e-03   1.812781e+00   2.065896e+00   8.963068e+00     2.0225e-01   7.151535e-02   1.408852e+02
   1.170421e-03   1.842080e+00   2.104323e+00   8.960598e+00     2.0558e-01   6.938710e-02   1.259882e+02
   1.188297e-03   1.870308e+00   2.141597e+00   8.952303e+00     2.0892e-01   6.751638e-02   1.130904e+02
   1.206172e-03   1.897483e+00   2.177634e+00   8.950045e+00     2.1201e-01   6.545504e-02   1.018799e+02
   1.224048e-03   1.923624e+00   2.212523e+00   8.940386e+00     2.1516e-01   6.370352e-02   9.209842e+01
   1.259800e-03   1.972898e+00   2.278815e+00   8.921280e+00     2.2115e-01   6.029984e-02   7.600422e+01
   1.277675e-03   1.996078e+00   2.310243e+00   8.911435e+00     2.2399e-01   5.866576e-02   6.936560e+01
   1.295551e-03   2.018320e+00   2.340544e+00   8.900972e+00     2.2675e-01   5.709200e-02   6.349226e+01
   1.313427e-03   2.039650e+00   2.369754e+00   8.890910e+00     2.2941e-01   5.554629e-02   5.827957e+01
   1.331303e-03   2.060094e+00   2.397877e+00   8.880349e+00     2.3198e-01   5.405783e-02   5.363922e+01
   1.349178e-03   2.079678e+00   2.424952e+00   8.870144e+00     2.3446e-01   5.260060e-02   4.949629e+01
   1.367054e-03   2.098427e+00   2.451041e+00   8.853024e+00     2.3703e-01   5.138598e-02   4.578696e+01
   1.384930e-03   2.116370e+00   2.476067e+00   8.841703e+00     2.3936e-01   5.004033e-02   4.245715e+01
   1.402806e-03   2.133530e+00   2.500104e+00   8.830545e+00     2.4161e-01   4.873097e-02   3.946003e+01
   1.420681e-03   2.149935e+00   2.523190e+00   8.820003e+00     2.4376e-01   4.744575e-02   3.675559e+01
   1.456433e-03   2.180579e+00   2.566619e+00   8.790256e+00     2.4807e-01   4.521989e-02   3.209129e+01
   1.474309e-03   2.194868e+00   2.587033e+00   8.772397e+00     2.5020e-01   4.423406e-02   3.007563e+01
   1.492184e-03   2.208502e+00   2.606521e+00   8.760537e+00     2.5210e-01   4.313116e-02   2.823997e+01
   1.510060e-03   2.221505e+00   2.625242e+00   8.742428e+00     2.5411e-01   4.221523e-02   2.656453e+01
   1.527936e-03   2.233898e+00   2.643091e+00   8.730538e+00     2.5587e-01   4.118177e-02   2.503237e+01
   1.545812e-03   2.245706e+00   2.660225e+00   8.712365e+00     2.5776e-01   4.032806e-02   2.362830e+01
   1.563687e-03   2.256948e+00   2.676530e+00   8.700394e+00     2.5941e-01   3.936178e-02   2.233931e+01
   1.581563e-03   2.267648e+00   2.692175e+00   8.682124e+00     2.6119e-01   3.856785e-02   2.115367e+01
   1.599439e-03   2.277825e+00   2.707033e+00   8.670202e+00     2.6272e-01   3.766215e-02   2.006125e+01
   1.617315e-03   2.287499e+00   2.721276e+00   8.651472e+00     2.6441e-01   3.693243e-02   1.905292e+01
   1.635190e-03   2.296690e+00   2.734789e+00   8.640038e+00     2.6582e-01   3.607452e-02   1.812072e+01
   1.653066e-03   2.305416e+00   2.747712e+00   8.620840e+00     2.6742e-01   3.540516e-02   1.725747e+01
   1.670942e-03   2.313694e+00   2.760026e+00   8.602421e+00     2.6896e-01   3.474271e-02   1.645682e+01
   1.688818e-03   2.321543e+00   2.771662e+00   8.590288e+00     2.7025e-01   3.397827e-02   1.571321e+01
   1.706693e-03   2.328979e+00   2.782793e+00   8.571546e+00     2.7171e-01   3.336840e-02   1.502145e+01
   1.724569e-03   2.336018e+00   2.793293e+00   8.560009e+00     2.7290e-01   3.264168e-02   1.437710e+01
   1.742445e-03   2.342676e+00   2.803311e+00   8.540654e+00     2.7430e-01   3.208643e-02   1.377604e+01
   1.760321e-03   2.348968e+00   2.812818e+00   8.522120e+00     2.7563e-01   3.153503e-02   1.321463e+01
   1.778196e-03   2.354907e+00   2.821740e+00   8.510159e+00     2.7672e-01   3.088310e-02   1.268962e+01
   1.796072e-03   2.360509e+00   2.830253e+00   8.491142e+00     2.7800e-01   3.037928e-02   1.219800e+01
   1.813948e-03   2.365786e+00   2.838295e+00   8.472731e+00     2.7922e-01   2.988209e-02   1.173707e+01
   1.831824e-03   2.370751e+00   2.845804e+00   8.460453e+00     2.8022e-01   2.929573e-02   1.130450e+01
   1.849699e-03   2.375417e+00   2.852959e+00   8.441713e+00     2.8139e-01   2.883924e-02   1.089799e+01
   1.867575e-03   2.379795e+00   2.859613e+00   8.430057e+00     2.8230e-01   2.827943e-02   1.051561e+01
   1.885451e-03   2.383897e+00   2.865931e+00   8.410934e+00     2.8343e-01   2.786178e-02   1.015551e+01
   1.903327e-03   2.387733e+00   2.871866e+00   8.392515e+00     2.8451e-01   2.744707e-02   9.816039e+00
   1.921202e-03   2.391315e+00   2.877333e+00   8.380364e+00     2.8535e-01   2.694574e-02   9.495751e+00
   1.939078e-03   2.394652e+00   2.882526e+00   8.361644e+00     2.8639e-01   2.656511e-02   9.193196e+00
   1.956954e-03   2.397755e+00   2.887283e+00   8.350058e+00     2.8715e-01   2.608598e-02   8.907172e+00
   1.974830e-03   2.400631e+00   2.891778e+00   8.331063e+00     2.8815e-01   2.573677e-02   8.636495e+00
   1.992705e-03   2.403292e+00   2.895951e+00   8.312688e+00     2.8911e-01   2.539018e-02   8.380110e+00
   2.010581e-03   2.405744e+00   2.899722e+00   8.300586e+00     2.8983e-01   2.496115e-02   8.137112e+00
   2.028457e-03   2.407996e+00   2.903283e+00   8.282178e+00     2.9074e-01   2.463957e-02   7.906528e+00
   2.046333e-03   2.410057e+00   2.906457e+00   8.270307e+00     2.9141e-01   2.423320e-02   7.687610e+00
   2.064208e-03   2.411933e+00   2.909438e+00   8.251703e+00     2.9230e-01   2.393730e-02   7.479550e+00
   2.082084e-03   2.413633e+00   2.912065e+00   8.240140e+00     2.9291e-01   2.355087e-02   7.281698e+00
   2.099960e-03   2.415163e+00   2.914512e+00   8.221434e+00     2.9376e-01   2.327761e-02   7.093377e+00
   2.117836e-03   2.416529e+00   2.916626e+00   8.210097e+00     2.9434e-01   2.291085e-02   6.914027e+00
   2.135711e-03   2.417740e+00   2.918579e+00   8.191220e+00     2.9516e-01   2.265968e-02   6.743072e+00
   2.153587e-03   2.418799e+00   2.920218e+00   8.180053e+00     2.9569e-01   2.231197e-02   6.580029e+00
   2.171463e-03   2.419715e+00   2.921713e+00   8.161256e+00     2.9649e-01   2.207803e-02   6.424406e+00
   2.189339e-03   2.420492e+00   2.922911e+00   8.150080e+00     2.9699e-01   2.175044e-02   6.275788e+00
   2.207214e-03   2.421136e+00   2.923976e+00   8.131351e+00     2.9775e-01   2.153274e-02   6.133749e+00
   2.225090e-03   2.421652e+00   2.924764e+00   8.120114e+00     2.9823e-01   2.122465e-02   5.997933e+00
   2.242966e-03   2.422045e+00   2.925442e+00   8.101597e+00     2.9896e-01   2.102018e-02   5.867967e+00
   2.278717e-03   2.422483e+00   2.926164e+00   8.072005e+00     3.0011e-01   2.053808e-02   5.624349e+00
   2.296593e-03   2.422536e+00   2.926213e+00   8.060546e+00     3.0054e-01   2.026661e-02   5.510116e+00
   2.314469e-03   2.422486e+00   2.926192e+00   8.042709e+00     3.0120e-01   2.008272e-02   5.400537e+00
   2.332345e-03   2.422335e+00   2.925913e+00   8.030944e+00     3.0163e-01   1.983034e-02   5.295428e+00
   2.368096e-03   2.421749e+00   2.925004e+00   8.001692e+00     3.0265e-01   1.941738e-02   5.097568e+00
   2.385972e-03   2.421321e+00   2.924284e+00   7.990474e+00     3.0303e-01   1.917984e-02   5.004426e+00
   2.421723e-03   2.420214e+00   2.922540e+00   7.961220e+00     3.0400e-01   1.880593e-02   4.828728e+00
   2.439599e-03   2.419542e+00   2.921422e+00   7.950243e+00     3.0434e-01   1.858523e-02   4.745840e+00
   2.457475e-03   2.418794e+00   2.920291e+00   7.932428e+00     3.0492e-01   1.845024e-02   4.666024e+00
   2.475351e-03   2.417974e+00   2.918936e+00   7.921044e+00     3.0526e-01   1.824618e-02   4.589176e+00
   2.493226e-03   2.417085e+00   2.917472e+00   7.910244e+00     3.0556e-01   1.804144e-02   4.515122e+00
   2.511102e-03   2.416130e+00   2.915991e+00   7.892544e+00     3.0613e-01   1.792067e-02   4.443722e+00
   2.528978e-03   2.415111e+00   2.914313e+00   7.881232e+00     3.0644e-01   1.773265e-02   4.374896e+00
   2.546854e-03   2.414031e+00   2.912540e+00   7.870406e+00     3.0672e-01   1.754464e-02   4.308492e+00
   2.564729e-03   2.412892e+00   2.910681e+00   7.860003e+00     3.0698e-01   1.735738e-02   4.244406e+00
   2.582605e-03   2.411697e+00   2.908792e+00   7.841731e+00     3.0755e-01   1.726174e-02   4.182530e+00
   2.600481e-03   2.410449e+00   2.906734e+00   7.830764e+00     3.0782e-01   1.709033e-02   4.122785e+00
   2.618357e-03   2.409148e+00   2.904602e+00   7.820197e+00     3.0807e-01   1.691950e-02   4.065061e+00
   2.636232e-03   2.407799e+00   2.902487e+00   7.802652e+00     3.0859e-01   1.682848e-02   4.009259e+00
   2.654108e-03   2.406402e+00   2.900179e+00   7.791441e+00     3.0885e-01   1.667349e-02   3.955338e+00
   2.689860e-03   2.403473e+00   2.895357e+00   7.770259e+00     3.0932e-01   1.636363e-02   3.852734e+00
   2.707735e-03   2.401946e+00   2.892852e+00   7.760017e+00     3.0953e-01   1.621155e-02   3.803913e+00
   2.725611e-03   2.400379e+00   2.890367e+00   7.742114e+00     3.1004e-01   1.614330e-02   3.756646e+00
   2.743487e-03   2.398773e+00   2.887721e+00   7.731318e+00     3.1027e-01   1.600472e-02   3.710895e+00
   2.761363e-03   2.397131e+00   2.885015e+00   7.720734e+00     3.1048e-01   1.586787e-02   3.666582e+00
   2.779238e-03   2.395454e+00   2.882253e+00   7.710319e+00     3.1068e-01   1.573314e-02   3.623651e+00
   2.797114e-03   2.393744e+00   2.879438e+00   7.700066e+00     3.1087e-01   1.560052e-02   3.582048e+00
   2.814990e-03   2.392002e+00   2.876651e+00   7.682614e+00     3.1135e-01   1.554415e-02   3.541709e+00
   2.850741e-03   2.388428e+00   2.870748e+00   7.661302e+00     3.1175e-01   1.530401e-02   3.464707e+00
   2.868617e-03   2.386598e+00   2.867727e+00   7.650856e+00     3.1194e-01   1.518693e-02   3.427930e+00
   2.886493e-03   2.384742e+00   2.864667e+00   7.640602e+00     3.1211e-01   1.507121e-02   3.392246e+00
   2.922244e-03   2.380956e+00   2.858419e+00   7.620144e+00     3.1246e-01   1.484887e-02   3.324001e+00
   2.940120e-03   2.379028e+00   2.855239e+00   7.610025e+00     3.1262e-01   1.474125e-02   3.291364e+00
   2.957996e-03   2.377078e+00   2.852118e+00   7.592854e+00     3.1307e-01   1.470463e-02   3.259653e+00
   2.975872e-03   2.375107e+00   2.848857e+00   7.582345e+00     3.1324e-01   1.460631e-02   3.228875e+00
   2.993747e-03   2.373116e+00   2.845563e+00   7.571972e+00     3.1341e-01   1.450946e-02   3.198971e+00
   3.011623e-03   2.371106e+00   2.842237e+00   7.561662e+00     3.1357e-01   1.441477e-02   3.169913e+00
   3.029499e-03   2.369079e+00   2.838885e+00   7.551539e+00     3.1372e-01   1.432097e-02   3.141672e+00
   3.118878e-03   2.358705e+00   2.821709e+00   7.500958e+00     3.1445e-01   1.388992e-02   3.011786e+00
   3.136754e-03   2.356589e+00   2.818202e+00   7.490919e+00     3.1459e-01   1.381022e-02   2.987901e+00
   3.154629e-03   2.354460e+00   2.814672e+00   7.480838e+00     3.1473e-01   1.373320e-02   2.964661e+00
   3.172505e-03   2.352320e+00   2.811126e+00   7.470909e+00     3.1486e-01   1.365700e-02   2.942045e+00
   3.190381e-03   2.350169e+00   2.807561e+00   7.460974e+00     3.1499e-01   1.358304e-02   2.920032e+00
   3.208257e-03   2.348009e+00   2.803978e+00   7.451054e+00     3.1512e-01   1.351108e-02   2.898605e+00
   3.226132e-03   2.345838e+00   2.800374e+00   7.441047e+00     3.1526e-01   1.344199e-02   2.877745e+00
   3.244008e-03   2.343659e+00   2.796762e+00   7.431229e+00     3.1538e-01   1.337324e-02   2.857433e+00
   3.261884e-03   2.341472e+00   2.793137e+00   7.421462e+00     3.1550e-01   1.330603e-02   2.837654e+00
   3.279760e-03   2.339277e+00   2.789496e+00   7.411582e+00     3.1562e-01   1.324179e-02   2.818391e+00
   3.297635e-03   2.337076e+00   2.785848e+00   7.401875e+00     3.1574e-01   1.317791e-02   2.799628e+00
   3.315511e-03   2.334867e+00   2.782187e+00   7.392106e+00     3.1586e-01   1.311648e-02   2.781351e+00
   3.333387e-03   2.332653e+00   2.778522e+00   7.382587e+00     3.1597e-01   1.305464e-02   2.763542e+00
   3.351263e-03   2.330433e+00   2.774758e+00   7.380003e+00     3.1578e-01   1.293377e-02   2.746209e+00
   3.369138e-03   2.328208e+00   2.771056e+00   7.370049e+00     3.1590e-01   1.287954e-02   2.729307e+00
   3.387014e-03   2.325978e+00   2.767346e+00   7.360165e+00     3.1602e-01   1.282642e-02   2.712837e+00
   3.422766e-03   2.321507e+00   2.759913e+00   7.340545e+00     3.1626e-01   1.272387e-02   2.681141e+00
   3.458517e-03   2.317022e+00   2.752481e+00   7.321255e+00     3.1648e-01   1.262492e-02   2.651026e+00
   3.494269e-03   2.312528e+00   2.745040e+00   7.302497e+00     3.1668e-01   1.252762e-02   2.622402e+00
   3.512144e-03   2.310278e+00   2.741199e+00   7.300001e+00     3.1648e-01   1.242259e-02   2.608642e+00
   3.530020e-03   2.308026e+00   2.737448e+00   7.290142e+00     3.1660e-01   1.238193e-02   2.595215e+00
   3.547896e-03   2.305774e+00   2.733709e+00   7.280465e+00     3.1671e-01   1.234115e-02   2.582122e+00
   3.565772e-03   2.303520e+00   2.729976e+00   7.270835e+00     3.1682e-01   1.230139e-02   2.569355e+00
   3.583647e-03   2.301267e+00   2.726245e+00   7.261417e+00     3.1692e-01   1.226121e-02   2.556904e+00
   3.601523e-03   2.299013e+00   2.722507e+00   7.252099e+00     3.1701e-01   1.222155e-02   2.544761e+00
   3.619399e-03   2.296759e+00   2.718661e+00   7.250010e+00     3.1679e-01   1.212268e-02   2.532931e+00
   3.637275e-03   2.294505e+00   2.714913e+00   7.240213e+00     3.1691e-01   1.208981e-02   2.521386e+00
   3.655150e-03   2.292253e+00   2.711177e+00   7.230504e+00     3.1703e-01   1.205749e-02   2.510128e+00
   3.673026e-03   2.290001e+00   2.707450e+00   7.221145e+00     3.1712e-01   1.202350e-02   2.499147e+00
   3.690902e-03   2.287750e+00   2.703715e+00   7.211919e+00     3.1722e-01   1.198965e-02   2.488435e+00
   3.708778e-03   2.285501e+00   2.699882e+00   7.210006e+00     3.1699e-01   1.189657e-02   2.477999e+00
   3.744529e-03   2.281008e+00   2.692429e+00   7.190685e+00     3.1722e-01   1.184227e-02   2.457882e+00
   3.762405e-03   2.278765e+00   2.688707e+00   7.181438e+00     3.1731e-01   1.181347e-02   2.448193e+00
   3.780281e-03   2.276524e+00   2.684991e+00   7.172666e+00     3.1739e-01   1.178187e-02   2.438738e+00
   3.798156e-03   2.274285e+00   2.681176e+00   7.170124e+00     3.1719e-01   1.170055e-02   2.429540e+00
   3.833908e-03   2.269816e+00   2.673765e+00   7.151354e+00     3.1740e-01   1.165316e-02   2.411795e+00
   3.869659e-03   2.265359e+00   2.666281e+00   7.140131e+00     3.1727e-01   1.154884e-02   2.394930e+00
   3.887535e-03   2.263136e+00   2.662591e+00   7.130614e+00     3.1738e-01   1.152995e-02   2.386809e+00
   3.905411e-03   2.260916e+00   2.658904e+00   7.121487e+00     3.1748e-01   1.150892e-02   2.378890e+00
   3.923287e-03   2.258700e+00   2.655229e+00   7.112830e+00     3.1755e-01   1.148508e-02   2.371165e+00
   3.959038e-03   2.254280e+00   2.647812e+00   7.101015e+00     3.1746e-01   1.139627e-02   2.356319e+00
   3.994790e-03   2.249877e+00   2.640432e+00   7.090131e+00     3.1733e-01   1.130419e-02   2.342209e+00
   4.012665e-03   2.247682e+00   2.636785e+00   7.080743e+00     3.1744e-01   1.129111e-02   2.335420e+00
   4.048417e-03   2.243306e+00   2.629454e+00   7.070055e+00     3.1730e-01   1.120341e-02   2.322365e+00
   4.066293e-03   2.241125e+00   2.625830e+00   7.060603e+00     3.1741e-01   1.119354e-02   2.316087e+00
   4.102044e-03   2.236778e+00   2.618552e+00   7.050031e+00     3.1727e-01   1.111057e-02   2.304020e+00
   4.119920e-03   2.234612e+00   2.614950e+00   7.040575e+00     3.1739e-01   1.110332e-02   2.298222e+00
   4.137796e-03   2.232451e+00   2.611366e+00   7.031664e+00     3.1749e-01   1.109260e-02   2.292573e+00
   4.155671e-03   2.230295e+00   2.607730e+00   7.030052e+00     3.1725e-01   1.102535e-02   2.287083e+00
   4.173547e-03   2.228145e+00   2.604152e+00   7.020643e+00     3.1737e-01   1.102020e-02   2.281734e+00
   4.191423e-03   2.226001e+00   2.600602e+00   7.011908e+00     3.1746e-01   1.101055e-02   2.276524e+00
   4.209299e-03   2.223862e+00   2.596989e+00   7.010114e+00     3.1724e-01   1.094741e-02   2.271467e+00
   4.227174e-03   2.221728e+00   2.593441e+00   7.000865e+00     3.1735e-01   1.094337e-02   2.266541e+00
   4.245050e-03   2.219601e+00   2.589934e+00   6.992599e+00     3.1742e-01   1.093239e-02   2.261740e+00
   4.262926e-03   2.217479e+00   2.586334e+00   6.990287e+00     3.1722e-01   1.087586e-02   2.257095e+00
   4.280802e-03   2.215363e+00   2.582823e+00   6.981274e+00     3.1733e-01   1.087225e-02   2.252565e+00
   4.298677e-03   2.213253e+00   2.579354e+00   6.973329e+00     3.1739e-01   1.086101e-02   2.248147e+00
   4.316553e-03   2.211149e+00   2.575771e+00   6.970595e+00     3.1721e-01   1.081020e-02   2.243894e+00
   4.334429e-03   2.209051e+00   2.572307e+00   6.961901e+00     3.1731e-01   1.080631e-02   2.239737e+00
   4.352305e-03   2.206959e+00   2.568770e+00   6.960174e+00     3.1708e-01   1.074923e-02   2.235712e+00
   4.370180e-03   2.204873e+00   2.565310e+00   6.951162e+00     3.1719e-01   1.074921e-02   2.231797e+00
   4.388056e-03   2.202793e+00   2.561893e+00   6.942974e+00     3.1727e-01   1.074346e-02   2.227984e+00
   4.405932e-03   2.200720e+00   2.558364e+00   6.940586e+00     3.1708e-01   1.069378e-02   2.224318e+00
   4.423808e-03   2.198653e+00   2.554961e+00   6.932064e+00     3.1717e-01   1.069200e-02   2.220740e+00
   4.441683e-03   2.196592e+00   2.551470e+00   6.930248e+00     3.1696e-01   1.063936e-02   2.217285e+00
   4.459559e-03   2.194537e+00   2.548069e+00   6.921248e+00     3.1707e-01   1.064260e-02   2.213928e+00
   4.477435e-03   2.192489e+00   2.544624e+00   6.920050e+00     3.1683e-01   1.058666e-02   2.210682e+00
   4.495311e-03   2.190448e+00   2.541236e+00   6.910911e+00     3.1696e-01   1.059222e-02   2.207536e+00
   4.513186e-03   2.188413e+00   2.537901e+00   6.902802e+00     3.1703e-01   1.059053e-02   2.204484e+00
   4.531062e-03   2.186385e+00   2.534448e+00   6.900547e+00     3.1684e-01   1.054472e-02   2.201551e+00
   4.548938e-03   2.184363e+00   2.531127e+00   6.892013e+00     3.1694e-01   1.054752e-02   2.198699e+00
   4.566814e-03   2.182347e+00   2.527710e+00   6.890301e+00     3.1673e-01   1.049889e-02   2.195958e+00
   4.584689e-03   2.180339e+00   2.524405e+00   6.881644e+00     3.1683e-01   1.050384e-02   2.193301e+00
   4.602565e-03   2.178337e+00   2.521021e+00   6.880133e+00     3.1661e-01   1.045500e-02   2.190746e+00
   4.620441e-03   2.176341e+00   2.517730e+00   6.871314e+00     3.1673e-01   1.046234e-02   2.188275e+00
   4.638317e-03   2.174353e+00   2.514381e+00   6.870065e+00     3.1650e-01   1.041279e-02   2.185900e+00
   4.656192e-03   2.172371e+00   2.511102e+00   6.861013e+00     3.1663e-01   1.042304e-02   2.183609e+00
   4.674068e-03   2.170396e+00   2.507787e+00   6.860013e+00     3.1638e-01   1.037285e-02   2.181409e+00
   4.709820e-03   2.166465e+00   2.501241e+00   6.850001e+00     3.1627e-01   1.033493e-02   2.177260e+00
   4.745571e-03   2.162563e+00   2.494820e+00   6.832779e+00     3.1650e-01   1.035366e-02   2.173433e+00
   4.763447e-03   2.160621e+00   2.491517e+00   6.830656e+00     3.1631e-01   1.031487e-02   2.171655e+00
   4.781323e-03   2.158687e+00   2.488365e+00   6.822693e+00     3.1640e-01   1.032066e-02   2.169937e+00
   4.799198e-03   2.156760e+00   2.485087e+00   6.820652e+00     3.1621e-01   1.028237e-02   2.168316e+00
   4.817074e-03   2.154839e+00   2.481961e+00   6.812857e+00     3.1629e-01   1.028792e-02   2.166750e+00
   4.834950e-03   2.152925e+00   2.478702e+00   6.810577e+00     3.1611e-01   1.025252e-02   2.165282e+00
   4.852826e-03   2.151018e+00   2.475602e+00   6.802779e+00     3.1620e-01   1.025913e-02   2.163867e+00
   4.888577e-03   2.147225e+00   2.469291e+00   6.792758e+00     3.1611e-01   1.023195e-02   2.161274e+00
   4.906453e-03   2.145339e+00   2.466087e+00   6.790781e+00     3.1592e-01   1.019635e-02   2.160094e+00
   4.924329e-03   2.143459e+00   2.462945e+00   6.790002e+00     3.1568e-01   1.015233e-02   2.158975e+00
   4.942204e-03   2.141587e+00   2.459851e+00   6.780855e+00     3.1583e-01   1.017146e-02   2.157922e+00
   4.960080e-03   2.139721e+00   2.456726e+00   6.780008e+00     3.1559e-01   1.012894e-02   2.156939e+00
   4.977956e-03   2.137863e+00   2.453667e+00   6.771025e+00     3.1574e-01   1.014778e-02   2.156019e+00
   4.995832e-03   2.136011e+00   2.450555e+00   6.770029e+00     3.1551e-01   1.010735e-02   2.155169e+00
   5.031583e-03   2.132328e+00   2.444436e+00   6.760150e+00     3.1543e-01   1.008687e-02   2.153657e+00
   5.049459e-03   2.130497e+00   2.441448e+00   6.751632e+00     3.1555e-01   1.010402e-02   2.152991e+00
   5.067335e-03   2.128673e+00   2.438367e+00   6.750316e+00     3.1534e-01   1.006787e-02   2.152396e+00
   5.085210e-03   2.126855e+00   2.435411e+00   6.741984e+00     3.1546e-01   1.008450e-02   2.151849e+00
   5.103086e-03   2.125045e+00   2.432349e+00   6.740534e+00     3.1526e-01   1.005025e-02   2.151377e+00
   5.120962e-03   2.123241e+00   2.429427e+00   6.732710e+00     3.1536e-01   1.006395e-02   2.150947e+00
   5.138838e-03   2.121445e+00   2.426382e+00   6.730815e+00     3.1518e-01   1.003391e-02   2.150595e+00
   5.156713e-03   2.119655e+00   2.423389e+00   6.730021e+00     3.1496e-01   9.996140e-03   2.150292e+00
   5.228216e-03   2.112564e+00   2.411629e+00   6.710413e+00     3.1482e-01   9.971458e-03   2.149634e+00
   5.281844e-03   2.107317e+00   2.402920e+00   6.700031e+00     3.1452e-01   9.925113e-03   2.149706e+00
   5.299719e-03   2.105582e+00   2.400088e+00   6.691282e+00     3.1468e-01   9.949684e-03   2.149831e+00
   5.335471e-03   2.102131e+00   2.394396e+00   6.682111e+00     3.1459e-01   9.938190e-03   2.150233e+00
   5.353347e-03   2.100416e+00   2.391501e+00   6.680676e+00     3.1440e-01   9.909670e-03   2.150519e+00
   5.371222e-03   2.098708e+00   2.388654e+00   6.680009e+00     3.1418e-01   9.875869e-03   2.150847e+00
   5.424850e-03   2.093623e+00   2.380302e+00   6.662082e+00     3.1426e-01   9.894586e-03   2.152107e+00
   5.442725e-03   2.091941e+00   2.377467e+00   6.660689e+00     3.1407e-01   9.867618e-03   2.152631e+00
   5.460601e-03   2.090266e+00   2.374677e+00   6.660026e+00     3.1385e-01   9.835642e-03   2.153194e+00
   5.478477e-03   2.088598e+00   2.371963e+00   6.651379e+00     3.1401e-01   9.863068e-03   2.153797e+00
   5.496353e-03   2.086936e+00   2.369171e+00   6.650324e+00     3.1381e-01   9.834679e-03   2.154452e+00
   5.549980e-03   2.081991e+00   2.360987e+00   6.640107e+00     3.1355e-01   9.803790e-03   2.156670e+00
   5.567856e-03   2.080356e+00   2.358345e+00   6.631813e+00     3.1369e-01   9.830298e-03   2.157489e+00
   5.585731e-03   2.078727e+00   2.355605e+00   6.630568e+00     3.1351e-01   9.805032e-03   2.158361e+00
   5.603607e-03   2.077105e+00   2.352911e+00   6.630006e+00     3.1329e-01   9.775094e-03   2.159270e+00
   5.621483e-03   2.075489e+00   2.350286e+00   6.621333e+00     3.1345e-01   9.805360e-03   2.160215e+00
   5.639359e-03   2.073880e+00   2.347590e+00   6.620410e+00     3.1326e-01   9.778713e-03   2.161208e+00
   5.657234e-03   2.072278e+00   2.345016e+00   6.612586e+00     3.1338e-01   9.803372e-03   2.162227e+00
   5.675110e-03   2.070681e+00   2.342336e+00   6.611142e+00     3.1321e-01   9.781214e-03   2.163304e+00
   5.692986e-03   2.069092e+00   2.339677e+00   6.610266e+00     3.1301e-01   9.755183e-03   2.164415e+00
   5.728737e-03   2.065931e+00   2.334485e+00   6.600888e+00     3.1298e-01   9.760371e-03   2.166745e+00
   5.746613e-03   2.064361e+00   2.331866e+00   6.600153e+00     3.1277e-01   9.734244e-03   2.167969e+00
   5.764489e-03   2.062796e+00   2.329357e+00   6.592299e+00     3.1291e-01   9.760947e-03   2.169218e+00
   5.782365e-03   2.061239e+00   2.326739e+00   6.590846e+00     3.1274e-01   9.740729e-03   2.170524e+00
   5.800240e-03   2.059687e+00   2.324156e+00   6.590096e+00     3.1254e-01   9.715617e-03   2.171858e+00
   5.818116e-03   2.058142e+00   2.321675e+00   6.582065e+00     3.1269e-01   9.744519e-03   2.173219e+00
   5.853868e-03   2.055070e+00   2.316546e+00   6.580116e+00     3.1232e-01   9.699073e-03   2.176071e+00
   5.907495e-03   2.050510e+00   2.309031e+00   6.570095e+00     3.1210e-01   9.685412e-03   2.180598e+00
   5.925371e-03   2.049002e+00   2.306616e+00   6.562172e+00     3.1224e-01   9.715229e-03   2.182165e+00
   5.943246e-03   2.047501e+00   2.304101e+00   6.560895e+00     3.1208e-01   9.696289e-03   2.183783e+00
   5.961122e-03   2.046005e+00   2.301615e+00   6.560157e+00     3.1188e-01   9.673646e-03   2.185427e+00
   5.978998e-03   2.044516e+00   2.299239e+00   6.552630e+00     3.1201e-01   9.701346e-03   2.187090e+00
   5.996874e-03   2.043033e+00   2.296751e+00   6.550992e+00     3.1187e-01   9.685910e-03   2.188809e+00
   6.032625e-03   2.040085e+00   2.291953e+00   6.542843e+00     3.1180e-01   9.691734e-03   2.192310e+00
   6.050501e-03   2.038620e+00   2.289498e+00   6.541154e+00     3.1166e-01   9.677452e-03   2.194121e+00
   6.068377e-03   2.037161e+00   2.287071e+00   6.540423e+00     3.1147e-01   9.656339e-03   2.195957e+00
   6.086253e-03   2.035708e+00   2.284678e+00   6.540003e+00     3.1127e-01   9.633211e-03   2.197821e+00
   6.104128e-03   2.034261e+00   2.282345e+00   6.531574e+00     3.1145e-01   9.669425e-03   2.199711e+00
   6.122004e-03   2.032820e+00   2.279941e+00   6.530578e+00     3.1128e-01   9.651029e-03   2.201639e+00
   6.157756e-03   2.029956e+00   2.275283e+00   6.521968e+00     3.1125e-01   9.663871e-03   2.205569e+00
   6.175631e-03   2.028532e+00   2.272909e+00   6.520887e+00     3.1108e-01   9.646848e-03   2.207587e+00
   6.193507e-03   2.027115e+00   2.270562e+00   6.520241e+00     3.1090e-01   9.626853e-03   2.209629e+00
   6.229259e-03   2.024298e+00   2.265972e+00   6.511289e+00     3.1089e-01   9.644183e-03   2.213793e+00
   6.247134e-03   2.022898e+00   2.263645e+00   6.510472e+00     3.1071e-01   9.626159e-03   2.215921e+00
   6.265010e-03   2.021504e+00   2.261352e+00   6.510036e+00     3.1052e-01   9.605571e-03   2.218074e+00
   6.282886e-03   2.020116e+00   2.259129e+00   6.501911e+00     3.1070e-01   9.642034e-03   2.220247e+00
   6.300762e-03   2.018733e+00   2.256825e+00   6.500817e+00     3.1054e-01   9.626759e-03   2.222460e+00
   6.318637e-03   2.017356e+00   2.254551e+00   6.500226e+00     3.1035e-01   9.607992e-03   2.224696e+00
   6.336513e-03   2.015985e+00   2.252376e+00   6.492703e+00     3.1050e-01   9.640726e-03   2.226945e+00
   6.354389e-03   2.014620e+00   2.250103e+00   6.491437e+00     3.1035e-01   9.627406e-03   2.229239e+00
   6.372265e-03   2.013260e+00   2.247845e+00   6.490558e+00     3.1018e-01   9.611436e-03   2.231555e+00
   6.408016e-03   2.010557e+00   2.243472e+00   6.482328e+00     3.1016e-01   9.628053e-03   2.236248e+00
   6.443768e-03   2.007877e+00   2.239024e+00   6.480379e+00     3.0984e-01   9.599069e-03   2.241062e+00
   6.461643e-03   2.006546e+00   2.236842e+00   6.480031e+00     3.0965e-01   9.580262e-03   2.243502e+00
   6.479519e-03   2.005219e+00   2.234722e+00   6.471925e+00     3.0983e-01   9.619115e-03   2.245958e+00
   6.497395e-03   2.003899e+00   2.232529e+00   6.470907e+00     3.0968e-01   9.605679e-03   2.248452e+00
   6.515271e-03   2.002583e+00   2.230361e+00   6.470313e+00     3.0950e-01   9.589299e-03   2.250966e+00
   6.533146e-03   2.001274e+00   2.228218e+00   6.470010e+00     3.0932e-01   9.570995e-03   2.253502e+00
   6.551022e-03   1.999970e+00   2.226127e+00   6.461666e+00     3.0951e-01   9.612485e-03   2.256056e+00
   6.568898e-03   1.998671e+00   2.223977e+00   6.460871e+00     3.0935e-01   9.598199e-03   2.258643e+00
   6.586774e-03   1.997377e+00   2.221848e+00   6.460283e+00     3.0918e-01   9.582590e-03   2.261251e+00
   6.604649e-03   1.996089e+00   2.219743e+00   6.460006e+00     3.0899e-01   9.564889e-03   2.263881e+00
   6.640401e-03   1.993529e+00   2.215576e+00   6.450910e+00     3.0903e-01   9.593418e-03   2.269206e+00
   6.676152e-03   1.990991e+00   2.211415e+00   6.450008e+00     3.0868e-01   9.561936e-03   2.274624e+00
   6.694028e-03   1.989729e+00   2.209399e+00   6.441797e+00     3.0888e-01   9.604120e-03   2.277359e+00
   6.729780e-03   1.987222e+00   2.205266e+00   6.440355e+00     3.0856e-01   9.577758e-03   2.282913e+00
   6.747655e-03   1.985977e+00   2.203232e+00   6.440047e+00     3.0838e-01   9.561797e-03   2.285719e+00
   6.765531e-03   1.984736e+00   2.201260e+00   6.432189e+00     3.0856e-01   9.602160e-03   2.288536e+00
   6.783407e-03   1.983501e+00   2.199214e+00   6.431099e+00     3.0842e-01   9.592387e-03   2.291392e+00
   6.801283e-03   1.982271e+00   2.197193e+00   6.430505e+00     3.0826e-01   9.579081e-03   2.294263e+00
   6.819158e-03   1.981046e+00   2.195191e+00   6.430097e+00     3.0809e-01   9.564580e-03   2.297153e+00
   6.837034e-03   1.979826e+00   2.193266e+00   6.422902e+00     3.0824e-01   9.600778e-03   2.300047e+00
   6.854910e-03   1.978611e+00   2.191255e+00   6.421498e+00     3.0812e-01   9.594081e-03   2.302989e+00
   6.872786e-03   1.977401e+00   2.189262e+00   6.420717e+00     3.0797e-01   9.582885e-03   2.305943e+00
   6.890661e-03   1.976197e+00   2.187292e+00   6.420221e+00     3.0781e-01   9.569735e-03   2.308914e+00
   6.908537e-03   1.974997e+00   2.185338e+00   6.420005e+00     3.0763e-01   9.554690e-03   2.311905e+00
   6.926413e-03   1.973803e+00   2.183434e+00   6.411890e+00     3.0783e-01   9.598711e-03   2.314907e+00
   6.944289e-03   1.972613e+00   2.181473e+00   6.411018e+00     3.0769e-01   9.588884e-03   2.317941e+00
   6.962164e-03   1.971428e+00   2.179534e+00   6.410491e+00     3.0753e-01   9.576646e-03   2.320991e+00
   6.980040e-03   1.970249e+00   2.177609e+00   6.410096e+00     3.0737e-01   9.563590e-03   2.324059e+00
   6.997916e-03   1.969074e+00   2.175759e+00   6.402955e+00     3.0753e-01   9.601070e-03   2.327130e+00
   7.015792e-03   1.967904e+00   2.173827e+00   6.401592e+00     3.0741e-01   9.595608e-03   2.330246e+00
   7.033667e-03   1.966739e+00   2.171913e+00   6.400840e+00     3.0726e-01   9.585716e-03   2.333373e+00
   7.051543e-03   1.965579e+00   2.170019e+00   6.400341e+00     3.0711e-01   9.574087e-03   2.336517e+00
   7.069419e-03   1.964424e+00   2.168138e+00   6.400038e+00     3.0694e-01   9.561163e-03   2.339677e+00
   7.087295e-03   1.963274e+00   2.166319e+00   6.392492e+00     3.0712e-01   9.602574e-03   2.342843e+00
   7.105170e-03   1.962128e+00   2.164433e+00   6.391444e+00     3.0699e-01   9.595550e-03   2.346048e+00
   7.123046e-03   1.960987e+00   2.162565e+00   6.390775e+00     3.0685e-01   9.585827e-03   2.349266e+00
   7.140922e-03   1.959851e+00   2.160711e+00   6.390263e+00     3.0669e-01   9.575089e-03   2.352499e+00
   7.158798e-03   1.958720e+00   2.158872e+00   6.390031e+00     3.0653e-01   9.562407e-03   2.355749e+00
   7.176673e-03   1.957594e+00   2.157091e+00   6.382403e+00     3.0672e-01   9.605309e-03   2.359003e+00
   7.194549e-03   1.956472e+00   2.155246e+00   6.381348e+00     3.0659e-01   9.599119e-03   2.362296e+00
   7.212425e-03   1.955355e+00   2.153419e+00   6.380704e+00     3.0645e-01   9.589971e-03   2.365600e+00
   7.230301e-03   1.954242e+00   2.151608e+00   6.380276e+00     3.0629e-01   9.579356e-03   2.368920e+00
   7.266052e-03   1.952031e+00   2.148066e+00   6.372410e+00     3.0633e-01   9.611231e-03   2.375594e+00
   7.283928e-03   1.950933e+00   2.146264e+00   6.371451e+00     3.0620e-01   9.605067e-03   2.378971e+00
   7.301804e-03   1.949839e+00   2.144476e+00   6.370795e+00     3.0606e-01   9.596745e-03   2.382359e+00
   7.319679e-03   1.948750e+00   2.142706e+00   6.370397e+00     3.0591e-01   9.586628e-03   2.385761e+00
   7.337555e-03   1.947665e+00   2.140942e+00   6.370064e+00     3.0575e-01   9.576178e-03   2.389178e+00
   7.355431e-03   1.946585e+00   2.139246e+00   6.362966e+00     3.0592e-01   9.616762e-03   2.392595e+00
   7.373307e-03   1.945509e+00   2.137481e+00   6.361738e+00     3.0581e-01   9.613361e-03   2.396054e+00
   7.409058e-03   1.943371e+00   2.133996e+00   6.360535e+00     3.0554e-01   9.597466e-03   2.403005e+00
   7.426934e-03   1.942309e+00   2.132271e+00   6.360193e+00     3.0539e-01   9.587767e-03   2.406502e+00
   7.444810e-03   1.941251e+00   2.130554e+00   6.360014e+00     3.0523e-01   9.576985e-03   2.410014e+00
   7.462685e-03   1.940198e+00   2.128892e+00   6.352188e+00     3.0544e-01   9.624032e-03   2.413530e+00
   7.480561e-03   1.939149e+00   2.127178e+00   6.351385e+00     3.0531e-01   9.618235e-03   2.417078e+00
   7.498437e-03   1.938104e+00   2.125479e+00   6.350824e+00     3.0517e-01   9.610724e-03   2.420637e+00
   7.516313e-03   1.937064e+00   2.123790e+00   6.350383e+00     3.0503e-01   9.602441e-03   2.424210e+00
   7.534188e-03   1.936028e+00   2.122109e+00   6.350098e+00     3.0488e-01   9.593122e-03   2.427796e+00
   7.552064e-03   1.934997e+00   2.120492e+00   6.342887e+00     3.0507e-01   9.636321e-03   2.431384e+00
   7.569940e-03   1.933970e+00   2.118814e+00   6.341879e+00     3.0495e-01   9.632739e-03   2.435005e+00
   7.587816e-03   1.932947e+00   2.117150e+00   6.341258e+00     3.0482e-01   9.626342e-03   2.438639e+00
   7.605691e-03   1.931928e+00   2.115495e+00   6.340698e+00     3.0469e-01   9.619609e-03   2.442286e+00
   7.623567e-03   1.930914e+00   2.113851e+00   6.340329e+00     3.0454e-01   9.611553e-03   2.445945e+00
   7.641443e-03   1.929904e+00   2.112213e+00   6.340074e+00     3.0440e-01   9.602764e-03   2.449618e+00
   7.659319e-03   1.928898e+00   2.110640e+00   6.332953e+00     3.0458e-01   9.646175e-03   2.453289e+00
   7.677194e-03   1.927896e+00   2.109006e+00   6.331885e+00     3.0447e-01   9.643824e-03   2.456997e+00
   7.695070e-03   1.926899e+00   2.107385e+00   6.331246e+00     3.0435e-01   9.638320e-03   2.460715e+00
   7.748697e-03   1.923932e+00   2.102576e+00   6.330105e+00     3.0393e-01   9.616638e-03   2.471942e+00
   7.766573e-03   1.922951e+00   2.100986e+00   6.330001e+00     3.0378e-01   9.607558e-03   2.475710e+00
   7.784449e-03   1.921974e+00   2.099454e+00   6.321975e+00     3.0401e-01   9.658866e-03   2.479482e+00
   7.802325e-03   1.921002e+00   2.097879e+00   6.321462e+00     3.0389e-01   9.653123e-03   2.483281e+00
   7.820200e-03   1.920033e+00   2.096309e+00   6.320906e+00     3.0376e-01   9.647830e-03   2.487090e+00
   7.855952e-03   1.918108e+00   2.093192e+00   6.320182e+00     3.0349e-01   9.634627e-03   2.494745e+00
   7.873828e-03   1.917152e+00   2.091643e+00   6.320035e+00     3.0335e-01   9.626564e-03   2.498591e+00
   7.891703e-03   1.916199e+00   2.090163e+00   6.312773e+00     3.0354e-01   9.672885e-03   2.502432e+00
   7.909579e-03   1.915251e+00   2.088621e+00   6.311807e+00     3.0344e-01   9.671328e-03   2.506312e+00
   7.927455e-03   1.914306e+00   2.087091e+00   6.311172e+00     3.0332e-01   9.667336e-03   2.510199e+00
   7.945331e-03   1.913366e+00   2.085571e+00   6.310743e+00     3.0319e-01   9.661863e-03   2.514096e+00
   7.963206e-03   1.912429e+00   2.084058e+00   6.310448e+00     3.0306e-01   9.655478e-03   2.518004e+00
   7.981082e-03   1.911497e+00   2.082547e+00   6.310144e+00     3.0292e-01   9.649282e-03   2.521924e+00
   8.016834e-03   1.909643e+00   2.079609e+00   6.302442e+00     3.0300e-01   9.691522e-03   2.529785e+00
   8.034709e-03   1.908722e+00   2.078117e+00   6.301668e+00     3.0289e-01   9.689264e-03   2.533748e+00
   8.052585e-03   1.907805e+00   2.076633e+00   6.301079e+00     3.0277e-01   9.685687e-03   2.537719e+00
   8.070461e-03   1.906892e+00   2.075159e+00   6.300690e+00     3.0265e-01   9.680665e-03   2.541699e+00
   8.088337e-03   1.905983e+00   2.073692e+00   6.300426e+00     3.0252e-01   9.674795e-03   2.545690e+00
   8.106212e-03   1.905077e+00   2.072226e+00   6.300150e+00     3.0239e-01   9.669122e-03   2.549692e+00
   8.124088e-03   1.904175e+00   2.070768e+00   6.300030e+00     3.0225e-01   9.662360e-03   2.553705e+00
   8.159840e-03   1.902383e+00   2.067934e+00   6.291745e+00     3.0236e-01   9.710986e-03   2.561757e+00
   8.177715e-03   1.901492e+00   2.066500e+00   6.291367e+00     3.0224e-01   9.706507e-03   2.565806e+00
   8.195591e-03   1.900605e+00   2.065066e+00   6.290813e+00     3.0212e-01   9.703483e-03   2.569866e+00
   8.231343e-03   1.898843e+00   2.062223e+00   6.290294e+00     3.0187e-01   9.693206e-03   2.578015e+00
   8.249218e-03   1.897967e+00   2.060807e+00   6.290069e+00     3.0174e-01   9.687950e-03   2.582105e+00
   8.267094e-03   1.897095e+00   2.059464e+00   6.282801e+00     3.0195e-01   9.737139e-03   2.586192e+00
   8.284970e-03   1.896227e+00   2.058064e+00   6.282166e+00     3.0184e-01   9.735245e-03   2.590305e+00
   8.320721e-03   1.894501e+00   2.055285e+00   6.281202e+00     3.0161e-01   9.729391e-03   2.598567e+00
   8.338597e-03   1.893644e+00   2.053902e+00   6.280773e+00     3.0150e-01   9.726193e-03   2.602711e+00
   8.374349e-03   1.891939e+00   2.051153e+00   6.280255e+00     3.0125e-01   9.717453e-03   2.611027e+00
   8.392224e-03   1.891093e+00   2.049786e+00   6.280066e+00     3.0113e-01   9.712680e-03   2.615200e+00
   8.410100e-03   1.890249e+00   2.048497e+00   6.272917e+00     3.0133e-01   9.761926e-03   2.619367e+00
   8.427976e-03   1.889410e+00   2.047148e+00   6.272385e+00     3.0123e-01   9.759996e-03   2.623562e+00
   8.445852e-03   1.888574e+00   2.045800e+00   6.271727e+00     3.0112e-01   9.759161e-03   2.627771e+00
   8.463727e-03   1.887741e+00   2.044459e+00   6.271229e+00     3.0102e-01   9.757162e-03   2.631986e+00
   8.481603e-03   1.886912e+00   2.043125e+00   6.270860e+00     3.0090e-01   9.754244e-03   2.636210e+00
   8.517355e-03   1.885264e+00   2.040469e+00   6.270325e+00     3.0066e-01   9.747100e-03   2.644684e+00
   8.535230e-03   1.884445e+00   2.039150e+00   6.270125e+00     3.0054e-01   9.743137e-03   2.648934e+00
   8.553106e-03   1.883630e+00   2.037839e+00   6.270014e+00     3.0042e-01   9.738570e-03   2.653194e+00
   8.570982e-03   1.882818e+00   2.036611e+00   6.262882e+00     3.0063e-01   9.788711e-03   2.657444e+00
   8.588858e-03   1.882009e+00   2.035307e+00   6.262029e+00     3.0054e-01   9.790136e-03   2.661732e+00
   8.606733e-03   1.881204e+00   2.034014e+00   6.261583e+00     3.0044e-01   9.788446e-03   2.666022e+00
   8.624609e-03   1.880402e+00   2.032725e+00   6.261179e+00     3.0033e-01   9.786512e-03   2.670321e+00
   8.642485e-03   1.879604e+00   2.031440e+00   6.260802e+00     3.0022e-01   9.784446e-03   2.674628e+00
   8.696112e-03   1.877228e+00   2.027617e+00   6.260119e+00     2.9987e-01   9.775264e-03   2.687599e+00
   8.713988e-03   1.876443e+00   2.026358e+00   6.260001e+00     2.9975e-01   9.771518e-03   2.691940e+00
   8.731864e-03   1.875662e+00   2.025183e+00   6.252908e+00     2.9997e-01   9.822380e-03   2.696270e+00
   8.749739e-03   1.874883e+00   2.023930e+00   6.252130e+00     2.9988e-01   9.823998e-03   2.700636e+00
   8.767615e-03   1.874108e+00   2.022685e+00   6.251612e+00     2.9978e-01   9.823638e-03   2.705007e+00
   8.785491e-03   1.873336e+00   2.021445e+00   6.251218e+00     2.9968e-01   9.822379e-03   2.709384e+00
   8.821242e-03   1.871801e+00   2.018981e+00   6.250661e+00     2.9946e-01   9.818278e-03   2.718160e+00
   8.839118e-03   1.871039e+00   2.017756e+00   6.250417e+00     2.9935e-01   9.816077e-03   2.722560e+00
   8.856994e-03   1.870280e+00   2.016537e+00   6.250252e+00     2.9923e-01   9.813337e-03   2.726968e+00
   8.874870e-03   1.869524e+00   2.015325e+00   6.250070e+00     2.9912e-01   9.810802e-03   2.731384e+00
   8.892745e-03   1.868771e+00   2.014196e+00   6.243026e+00     2.9934e-01   9.862288e-03   2.735784e+00
   8.910621e-03   1.868021e+00   2.013003e+00   6.242923e+00     2.9922e-01   9.859287e-03   2.740218e+00
   8.928497e-03   1.867275e+00   2.011802e+00   6.242064e+00     2.9914e-01   9.862368e-03   2.744668e+00
   8.946373e-03   1.866531e+00   2.010610e+00   6.241615e+00     2.9905e-01   9.862261e-03   2.749119e+00
   8.982124e-03   1.865054e+00   2.008243e+00   6.241028e+00     2.9884e-01   9.859805e-03   2.758040e+00
   9.000000e-03   1.864320e+00   2.007063e+00   6.240709e+00     2.9874e-01   9.858890e-03   2.762511e+00
